…
Before we dive into our research questions, let’s update our dataset to
the refined one from last milestone - we use this new dataset with
unnecessary variables and extreme values taken out and keep only the
trees of Japanese origin.

``` r
# Look at all common_name present in the dataset
unique(select(vancouver_trees, common_name))
```

    ## # A tibble: 634 x 1
    ##    common_name          
    ##    <chr>                
    ##  1 BRANDON ELM          
    ##  2 JAPANESE ZELKOVA     
    ##  3 JAPANESE SNOWBELL    
    ##  4 AUTUMN APPLAUSE ASH  
    ##  5 HEDGE MAPLE          
    ##  6 CHANTICLEER PEAR     
    ##  7 COLUMNAR NORWAY MAPLE
    ##  8 CRIMEAN LINDEN       
    ##  9 ROSE OF SHARON       
    ## 10 RAYWOOD ASH          
    ## # ... with 624 more rows

``` r
# Select only those starting with Japanese and put into a variable of common_name
selected_common_name = c("JAPANESE SNOWBELL", "JAPANESE DOGWOOD", "JAPANESE ZELKOVA", "JAPANESE BEECH", "JAPANESE MAPLE", "JAPANESE FLOWERING CRABAPPLE", "JAPANESE STEWARTIA", "JAPANESE STEWARTIA", "JAPANESE HORNBEAM", "JAPANESE PAGODA TREE", "JAPANESE CRYPTOMERIA", "JAPANESE WALNUT", "JAPANESE ANGELICA TREE", "JAPANESE WHITE PINE", "JAPANESE BLACK PINE", "JAPANESE CHESTNUT")
# Create a new tibble containing only Japanese originated trees and take out some irrelevant variables and extreme values
Japanese_trees <- vancouver_trees %>%
  select(-civic_number, -assigned, -cultivar_name, -street_side_name, -longitude, -latitude) %>%
  #filter(size < 7.5*10^3, diameter < 40) %>%
  filter(common_name %in% selected_common_name)
print(Japanese_trees)
```

    ## # A tibble: 4,613 x 14
    ##    tree_id std_street       genus_name species_name common_name     root_barrier
    ##      <dbl> <chr>            <chr>      <chr>        <chr>           <chr>       
    ##  1  149563 W 58TH AV        ZELKOVA    SERRATA      JAPANESE ZELKO~ N           
    ##  2  149579 WINDSOR ST       STYRAX     JAPONICA     JAPANESE SNOWB~ N           
    ##  3  149647 E 16TH AV        STYRAX     JAPONICA     JAPANESE SNOWB~ N           
    ##  4  149658 WINDSOR ST       STYRAX     JAPONICA     JAPANESE SNOWB~ N           
    ##  5  155398 MCRAE AV         STYRAX     JAPONICA     JAPANESE SNOWB~ N           
    ##  6  155424 W 57TH AV        CORNUS     KOUSA        JAPANESE DOGWO~ N           
    ##  7  155489 COMMERCIAL ST    FAGUS      CRENATA      JAPANESE BEECH  N           
    ##  8  155951 W KING EDWARD AV STYRAX     JAPONICA     JAPANESE SNOWB~ N           
    ##  9  156066 W 38TH AV        ACER       PALMATUM     JAPANESE MAPLE  N           
    ## 10  156067 W 38TH AV        ACER       PALMATUM     JAPANESE MAPLE  N           
    ## # ... with 4,603 more rows, and 8 more variables: plant_area <chr>,
    ## #   on_street_block <dbl>, on_street <chr>, neighbourhood_name <chr>,
    ## #   height_range_id <dbl>, diameter <dbl>, curb <chr>, date_planted <date>
…
``` r
answer1.1 <- Japanese_trees %>%
  group_by(neighbourhood_name, common_name) %>%
  summarise(n = n())
```

    ## `summarise()` has grouped output by 'neighbourhood_name'. You can override using the `.groups` argument.

``` r
print(answer1.1)  
```

    ## # A tibble: 165 x 3
    ## # Groups:   neighbourhood_name [22]
    ##    neighbourhood_name common_name                      n
    ##    <chr>              <chr>                        <int>
    ##  1 ARBUTUS-RIDGE      JAPANESE DOGWOOD                 8
    ##  2 ARBUTUS-RIDGE      JAPANESE FLOWERING CRABAPPLE    68
    ##  3 ARBUTUS-RIDGE      JAPANESE HORNBEAM               18
    ##  4 ARBUTUS-RIDGE      JAPANESE MAPLE                  26
    ##  5 ARBUTUS-RIDGE      JAPANESE SNOWBELL               16
    ##  6 ARBUTUS-RIDGE      JAPANESE ZELKOVA                 5
    ##  7 DOWNTOWN           JAPANESE DOGWOOD                 7
    ##  8 DOWNTOWN           JAPANESE FLOWERING CRABAPPLE     4
    ##  9 DOWNTOWN           JAPANESE HORNBEAM               19
    ## 10 DOWNTOWN           JAPANESE MAPLE                   1
    ## # ... with 155 more rows
…
    ## [1]   0 435

``` r
Japanese_trees %>%
  mutate(height_level = case_when(height_range_id < 3 ~ "short",
                                 height_range_id < 6 ~ "medium",
                                 TRUE ~ "tall")) %>%
  mutate(diameter_level = case_when(diameter < 10 ~ "slim",
                                 diameter < 30 ~ "medium",
                                 TRUE ~ "thick"))
```

    ## # A tibble: 4,613 x 16
    ##    tree_id std_street       genus_name species_name common_name     root_barrier
    ##      <dbl> <chr>            <chr>      <chr>        <chr>           <chr>       
    ##  1  149563 W 58TH AV        ZELKOVA    SERRATA      JAPANESE ZELKO~ N           
    ##  2  149579 WINDSOR ST       STYRAX     JAPONICA     JAPANESE SNOWB~ N           
    ##  3  149647 E 16TH AV        STYRAX     JAPONICA     JAPANESE SNOWB~ N           
    ##  4  149658 WINDSOR ST       STYRAX     JAPONICA     JAPANESE SNOWB~ N           
    ##  5  155398 MCRAE AV         STYRAX     JAPONICA     JAPANESE SNOWB~ N           
    ##  6  155424 W 57TH AV        CORNUS     KOUSA        JAPANESE DOGWO~ N           
    ##  7  155489 COMMERCIAL ST    FAGUS      CRENATA      JAPANESE BEECH  N           
    ##  8  155951 W KING EDWARD AV STYRAX     JAPONICA     JAPANESE SNOWB~ N           
    ##  9  156066 W 38TH AV        ACER       PALMATUM     JAPANESE MAPLE  N           
    ## 10  156067 W 38TH AV        ACER       PALMATUM     JAPANESE MAPLE  N           
    ## # ... with 4,603 more rows, and 10 more variables: plant_area <chr>,
    ## #   on_street_block <dbl>, on_street <chr>, neighbourhood_name <chr>,
    ## #   height_range_id <dbl>, diameter <dbl>, curb <chr>, date_planted <date>,
    ## #   height_level <chr>, diameter_level <chr>
…
We will look at different categories of “neighbourhood_name” of the
trees and explore their height statistics (e.g. mean, range, standard
deviation, count of trees per neighborhood):

``` r
answer3.1 <- Japanese_trees %>%
  group_by(neighbourhood_name) %>%
  summarise(height_mean = mean(height_range_id, na.rm = TRUE), height_min = min(height_range_id, na.rm = TRUE), height_max = max(height_range_id, na.rm = TRUE), height_std = sd(height_range_id, na.rm = TRUE), count = n())
  
print(answer3.1)
```

    ## # A tibble: 22 x 6
    ##    neighbourhood_name       height_mean height_min height_max height_std count
    ##    <chr>                          <dbl>      <dbl>      <dbl>      <dbl> <int>
    ##  1 ARBUTUS-RIDGE                   1.91          0          4      0.764   141
    ##  2 DOWNTOWN                        1.35          1          3      0.517    57
    ##  3 DUNBAR-SOUTHLANDS               1.79          0          7      0.715   346
    ##  4 FAIRVIEW                        1.43          1          3      0.536   101
    ##  5 GRANDVIEW-WOODLAND              1.62          1          4      0.650   249
    ##  6 HASTINGS-SUNRISE                1.68          1          6      0.734   400
    ##  7 KENSINGTON-CEDAR COTTAGE        1.90          1          5      0.706   398
    ##  8 KERRISDALE                      1.83          1          5      0.688   254
    ##  9 KILLARNEY                       1.89          1          7      0.829   131
    ## 10 KITSILANO                       1.54          0          7      0.819   205
    ## # ... with 12 more rows
…
                                  common_name == "JAPANESE PAGODA TREE" ~ "yellow",
                                  common_name == "JAPANESE CRYPTOMERIA" ~ "brown",
                                  common_name == "JAPANESE WALNUT" ~ "yellow",
                                  common_name == "JAPANESE ANGELICA TREE" ~ "brown",
                                  common_name == "JAPANESE WHITE PINE" ~ "green",
                                  common_name == "JAPANESE BLACK PINE" ~ "green",
                                  common_name == "JAPANESE CHESTNUT" ~ "red",
                                 TRUE ~ "NA")) %>%
  select(tree_id, common_name, neighbourhood_name, fall_foliage, height_range_id) %>%
  filter(fall_foliage != "NA") %>%
  group_by(neighbourhood_name, fall_foliage) 
print(answer4.1)
```

    ## # A tibble: 4,032 x 5
    ## # Groups:   neighbourhood_name, fall_foliage [67]
    ##    tree_id common_name       neighbourhood_name       fall_foliage height_range_id
    ##      <dbl> <chr>             <chr>                    <chr>                  <dbl>
    ##  1  149563 JAPANESE ZELKOVA  MARPOLE                  red                        4
    ##  2  149579 JAPANESE SNOWBELL KENSINGTON-CEDAR COTTAGE red                        3
    ##  3  149647 JAPANESE SNOWBELL MOUNT PLEASANT           red                        2
    ##  4  149658 JAPANESE SNOWBELL KENSINGTON-CEDAR COTTAGE red                        2
    ##  5  155398 JAPANESE SNOWBELL SHAUGHNESSY              red                        2
    ##  6  155951 JAPANESE SNOWBELL SHAUGHNESSY              red                        2
    ##  7  156066 JAPANESE MAPLE    RILEY PARK               brown                      2
    ##  8  156067 JAPANESE MAPLE    RILEY PARK               brown                      2
    ##  9  157212 JAPANESE SNOWBELL SHAUGHNESSY              red                        2
    ## 10  157393 JAPANESE SNOWBELL SHAUGHNESSY              red                        2
    ## # ... with 4,022 more rows

``` r
answer4.2 <- summarise(answer4.1, count = n())
```

    ## `summarise()` has grouped output by 'neighbourhood_name'. You can override using the `.groups` argument.

``` r
print(answer4.2)
```

    ## # A tibble: 67 x 3
    ## # Groups:   neighbourhood_name [22]
    ##    neighbourhood_name fall_foliage count
    ##    <chr>              <chr>        <int>
    ##  1 ARBUTUS-RIDGE      brown           26
    ##  2 ARBUTUS-RIDGE      red             21
    ##  3 ARBUTUS-RIDGE      yellow          86
    ##  4 DOWNTOWN           brown            1
    ##  5 DOWNTOWN           red             26
    ##  6 DOWNTOWN           yellow          23
    ##  7 DUNBAR-SOUTHLANDS  brown           55
    ##  8 DUNBAR-SOUTHLANDS  red            121
    ##  9 DUNBAR-SOUTHLANDS  yellow         154
    ## 10 FAIRVIEW           brown           15
    ## # ... with 57 more rows
…
First if we would have the variable “column” split into 2 columns, it
would make our data untidy. The reason is that we need curb as one
variable which contains if it’s on the curb or not. Splitting two
separate columns out of curb will make these two columns not qualified
as independent variables.

``` r
untidy <- vancouver_trees %>%
  pivot_wider(id_cols = c(-diameter, -curb), 
                names_from = curb,
                values_from = diameter)
print(untidy)
```

    ## # A tibble: 146,611 x 20
    ##    tree_id civic_number std_street    genus_name species_name cultivar_name  
    ##      <dbl>        <dbl> <chr>         <chr>      <chr>        <chr>          
    ##  1  149556          494 W 58TH AV     ULMUS      AMERICANA    BRANDON        
    ##  2  149563          450 W 58TH AV     ZELKOVA    SERRATA      <NA>           
    ##  3  149579         4994 WINDSOR ST    STYRAX     JAPONICA     <NA>           
    ##  4  149590          858 E 39TH AV     FRAXINUS   AMERICANA    AUTUMN APPLAUSE
    ##  5  149604         5032 WINDSOR ST    ACER       CAMPESTRE    <NA>           
    ##  6  149616          585 W 61ST AV     PYRUS      CALLERYANA   CHANTICLEER    
    ##  7  149617         4909 SHERBROOKE ST ACER       PLATANOIDES  COLUMNARE      
    ##  8  149618         4925 SHERBROOKE ST ACER       PLATANOIDES  COLUMNARE      
    ##  9  149619         4969 SHERBROOKE ST ACER       PLATANOIDES  COLUMNARE      
    ## 10  149625          720 E 39TH AV     FRAXINUS   AMERICANA    AUTUMN APPLAUSE
    ## # ... with 146,601 more rows, and 14 more variables: common_name <chr>,
    ## #   assigned <chr>, root_barrier <chr>, plant_area <chr>,
    ## #   on_street_block <dbl>, on_street <chr>, neighbourhood_name <chr>,
    ## #   street_side_name <chr>, height_range_id <dbl>, date_planted <date>,
    ## #   longitude <dbl>, latitude <dbl>, N <dbl>, Y <dbl>
Now to re-tidy our data, we simply need to perform the inverse of
pivot_wider, that is, pivot longer. After combining these two columns
back, we will have our variable “curb” as a set of binary values that
can be directly analyzed, computed on and plotted, thanks to the idea of
tidying!

``` r
tidy <- untidy %>%
  pivot_longer(cols = c(N, Y), 
                names_to = "curb",
                values_to = "diameter")
print(tidy)
```

    ## # A tibble: 293,222 x 20
    ##    tree_id civic_number std_street genus_name species_name cultivar_name  
    ##      <dbl>        <dbl> <chr>      <chr>      <chr>        <chr>          
    ##  1  149556          494 W 58TH AV  ULMUS      AMERICANA    BRANDON        
    ##  2  149556          494 W 58TH AV  ULMUS      AMERICANA    BRANDON        
    ##  3  149563          450 W 58TH AV  ZELKOVA    SERRATA      <NA>           
    ##  4  149563          450 W 58TH AV  ZELKOVA    SERRATA      <NA>           
    ##  5  149579         4994 WINDSOR ST STYRAX     JAPONICA     <NA>           
    ##  6  149579         4994 WINDSOR ST STYRAX     JAPONICA     <NA>           
    ##  7  149590          858 E 39TH AV  FRAXINUS   AMERICANA    AUTUMN APPLAUSE
    ##  8  149590          858 E 39TH AV  FRAXINUS   AMERICANA    AUTUMN APPLAUSE
    ##  9  149604         5032 WINDSOR ST ACER       CAMPESTRE    <NA>           
    ## 10  149604         5032 WINDSOR ST ACER       CAMPESTRE    <NA>           
    ## # ... with 293,212 more rows, and 14 more variables: common_name <chr>,
    ## #   assigned <chr>, root_barrier <chr>, plant_area <chr>,
    ## #   on_street_block <dbl>, on_street <chr>, neighbourhood_name <chr>,
    ## #   street_side_name <chr>, height_range_id <dbl>, date_planted <date>,
    ## #   longitude <dbl>, latitude <dbl>, curb <chr>, diameter <dbl>
…
                                  common_name == "JAPANESE STEWARTIA" ~ "red",
                                  common_name == "JAPANESE HORNBEAM" ~ "yellow",
                                  common_name == "JAPANESE PAGODA TREE" ~ "yellow",
                                  common_name == "JAPANESE CRYPTOMERIA" ~ "brown",
                                  common_name == "JAPANESE WALNUT" ~ "yellow",
                                  common_name == "JAPANESE ANGELICA TREE" ~ "brown",
                                  common_name == "JAPANESE WHITE PINE" ~ "green",
                                  common_name == "JAPANESE BLACK PINE" ~ "green",
                                  common_name == "JAPANESE CHESTNUT" ~ "red",
                                 TRUE ~ "NA")) %>%
  arrange(tree_id)
print(refined_trees)
```

    ## # A tibble: 4,611 x 22
    ##    tree_id std_street genus_name species_name common_name           root_barrier
    ##      <dbl> <chr>      <chr>      <chr>        <chr>                 <chr>       
    ##  1     464 E 1ST AV   MALUS      FLORIBUNDA   JAPANESE FLOWERING C~ N           
    ##  2     465 E 1ST AV   MALUS      FLORIBUNDA   JAPANESE FLOWERING C~ N           
    ##  3     470 E 1ST AV   MALUS      FLORIBUNDA   JAPANESE FLOWERING C~ N           
    ##  4     472 E 1ST AV   MALUS      FLORIBUNDA   JAPANESE FLOWERING C~ N           
    ##  5     473 E 1ST AV   MALUS      FLORIBUNDA   JAPANESE FLOWERING C~ N           
    ##  6     474 E 1ST AV   MALUS      FLORIBUNDA   JAPANESE FLOWERING C~ N           
    ##  7     475 E 1ST AV   MALUS      FLORIBUNDA   JAPANESE FLOWERING C~ N           
    ##  8     476 E 1ST AV   MALUS      FLORIBUNDA   JAPANESE FLOWERING C~ N           
    ##  9     477 E 1ST AV   MALUS      FLORIBUNDA   JAPANESE FLOWERING C~ N           
    ## 10     478 E 1ST AV   MALUS      FLORIBUNDA   JAPANESE FLOWERING C~ N           
    ## # ... with 4,601 more rows, and 16 more variables: plant_area <chr>,
    ## #   on_street_block <dbl>, on_street <chr>, neighbourhood_name <chr>,
    ## #   height_range_id <dbl>, diameter <dbl>, curb <chr>, date_planted <date>,
    ## #   civic_number <dbl>, cultivar_name <chr>, assigned <chr>,
    ## #   street_side_name <chr>, longitude <dbl>, latitude <dbl>, size <dbl>,
    ## #   fall_foliage <chr>
…
