…
                                  common_name == "JAPANESE HORNBEAM" ~ "yellow",
                                  common_name == "JAPANESE PAGODA TREE" ~ "yellow",
                                  common_name == "JAPANESE CRYPTOMERIA" ~ "brown",
                                  common_name == "JAPANESE WALNUT" ~ "yellow",
                                  common_name == "JAPANESE ANGELICA TREE" ~ "brown",
                                  common_name == "JAPANESE WHITE PINE" ~ "green",
                                  common_name == "JAPANESE BLACK PINE" ~ "green",
                                  common_name == "JAPANESE CHESTNUT" ~ "red",
                                 TRUE ~ "NA")) %>%
  arrange(tree_id)
refined_trees$common_name <- factor(refined_trees$common_name)
print(refined_trees)
```

    ## # A tibble: 4,611 x 22
    ##    tree_id std_street genus_name species_name common_name           root_barrier
    ##      <dbl> <chr>      <chr>      <chr>        <fct>                 <chr>       
    ##  1     464 E 1ST AV   MALUS      FLORIBUNDA   JAPANESE FLOWERING C~ N           
    ##  2     465 E 1ST AV   MALUS      FLORIBUNDA   JAPANESE FLOWERING C~ N           
    ##  3     470 E 1ST AV   MALUS      FLORIBUNDA   JAPANESE FLOWERING C~ N           
    ##  4     472 E 1ST AV   MALUS      FLORIBUNDA   JAPANESE FLOWERING C~ N           
    ##  5     473 E 1ST AV   MALUS      FLORIBUNDA   JAPANESE FLOWERING C~ N           
    ##  6     474 E 1ST AV   MALUS      FLORIBUNDA   JAPANESE FLOWERING C~ N           
    ##  7     475 E 1ST AV   MALUS      FLORIBUNDA   JAPANESE FLOWERING C~ N           
    ##  8     476 E 1ST AV   MALUS      FLORIBUNDA   JAPANESE FLOWERING C~ N           
    ##  9     477 E 1ST AV   MALUS      FLORIBUNDA   JAPANESE FLOWERING C~ N           
    ## 10     478 E 1ST AV   MALUS      FLORIBUNDA   JAPANESE FLOWERING C~ N           
    ## # ... with 4,601 more rows, and 16 more variables: plant_area <chr>,
    ## #   on_street_block <dbl>, on_street <chr>, neighbourhood_name <chr>,
    ## #   height_range_id <dbl>, diameter <dbl>, curb <chr>, date_planted <date>,
    ## #   civic_number <dbl>, cultivar_name <chr>, assigned <chr>,
    ## #   street_side_name <chr>, longitude <dbl>, latitude <dbl>, size <dbl>,
    ## #   fall_foliage <chr>
…
``` r
print(answer1.1)
```

    ## # A tibble: 1,088 x 22
    ##    tree_id std_street       genus_name species_name   common_name   root_barrier
    ##      <dbl> <chr>            <chr>      <chr>          <fct>         <chr>       
    ##  1     716 W KING EDWARD AV STYRAX     JAPONICA       JAPANESE SNO~ N           
    ##  2    7353 W 43RD AV        CORNUS     KOUSA          JAPANESE DOG~ N           
    ##  3   14378 E 14TH AV        CORNUS     KOUSA          JAPANESE DOG~ N           
    ##  4   17095 E 16TH AV        CORNUS     KOUSA          JAPANESE DOG~ N           
    ##  5   18367 SCHOOL AV        STEWARTIA  PSEUDOCAMELLIA JAPANESE STE~ N           
    ##  6   18377 SCHOOL AV        STEWARTIA  PSEUDOCAMELLIA JAPANESE STE~ N           
    ##  7   18488 W 17TH AV        CORNUS     KOUSA          JAPANESE DOG~ N           
    ##  8   19027 NOOTKA ST        MALUS      FLORIBUNDA     JAPANESE FLO~ N           
    ##  9   19028 NOOTKA ST        MALUS      FLORIBUNDA     JAPANESE FLO~ N           
    ## 10   19122 CARNARVON ST     STYRAX     JAPONICA       JAPANESE SNO~ N           
    ## # ... with 1,078 more rows, and 16 more variables: plant_area <chr>,
    ## #   on_street_block <dbl>, on_street <chr>, neighbourhood_name <chr>,
    ## #   height_range_id <dbl>, diameter <dbl>, curb <chr>, date_planted <date>,
    ## #   civic_number <dbl>, cultivar_name <chr>, assigned <chr>,
    ## #   street_side_name <chr>, longitude <dbl>, latitude <dbl>, size <dbl>,
    ## #   fall_foliage <chr>
…
*Task 2 (for research question 1)*

``` r
#month(refined_trees$date_planted)
answer1.2 <- refined_trees %>%
  mutate(year = year(refined_trees$date_planted))
print(answer1.2)
```

    ## # A tibble: 4,611 x 23
    ##    tree_id std_street genus_name species_name common_name           root_barrier
    ##      <dbl> <chr>      <chr>      <chr>        <fct>                 <chr>       
    ##  1     464 E 1ST AV   MALUS      FLORIBUNDA   JAPANESE FLOWERING C~ N           
    ##  2     465 E 1ST AV   MALUS      FLORIBUNDA   JAPANESE FLOWERING C~ N           
    ##  3     470 E 1ST AV   MALUS      FLORIBUNDA   JAPANESE FLOWERING C~ N           
    ##  4     472 E 1ST AV   MALUS      FLORIBUNDA   JAPANESE FLOWERING C~ N           
    ##  5     473 E 1ST AV   MALUS      FLORIBUNDA   JAPANESE FLOWERING C~ N           
    ##  6     474 E 1ST AV   MALUS      FLORIBUNDA   JAPANESE FLOWERING C~ N           
    ##  7     475 E 1ST AV   MALUS      FLORIBUNDA   JAPANESE FLOWERING C~ N           
    ##  8     476 E 1ST AV   MALUS      FLORIBUNDA   JAPANESE FLOWERING C~ N           
    ##  9     477 E 1ST AV   MALUS      FLORIBUNDA   JAPANESE FLOWERING C~ N           
    ## 10     478 E 1ST AV   MALUS      FLORIBUNDA   JAPANESE FLOWERING C~ N           
    ## # ... with 4,601 more rows, and 17 more variables: plant_area <chr>,
    ## #   on_street_block <dbl>, on_street <chr>, neighbourhood_name <chr>,
    ## #   height_range_id <dbl>, diameter <dbl>, curb <chr>, date_planted <date>,
    ## #   civic_number <dbl>, cultivar_name <chr>, assigned <chr>,
    ## #   street_side_name <chr>, longitude <dbl>, latitude <dbl>, size <dbl>,
    ## #   fall_foliage <chr>, year <dbl>
…
    ## `summarise()` has grouped output by 'neighbourhood_name'. You can override using the `.groups` argument.

``` r
print(summarized)
```

    ## # A tibble: 67 x 3
    ## # Groups:   neighbourhood_name [22]
    ##    neighbourhood_name fall_foliage count
    ##    <chr>              <chr>        <int>
    ##  1 ARBUTUS-RIDGE      brown           26
    ##  2 ARBUTUS-RIDGE      red             21
    ##  3 ARBUTUS-RIDGE      yellow          86
    ##  4 DOWNTOWN           brown            1
    ##  5 DOWNTOWN           red             26
    ##  6 DOWNTOWN           yellow          23
    ##  7 DUNBAR-SOUTHLANDS  brown           55
    ##  8 DUNBAR-SOUTHLANDS  red            121
    ##  9 DUNBAR-SOUTHLANDS  yellow         154
    ## 10 FAIRVIEW           brown           15
    ## # ... with 57 more rows
…
