…
**Exercise 4: Make a new tibble with a subset of the data**

The final exercise is to make a new tibble containing only trees of
Japanese origins (i.e. trees that have common names starting with
“Japanese”). We will also take out some variables that we are not
interested in. In the following mini data analysis projects, we will use
this refined dataset to investigate specific research questions targeted
to trees of Japanese origins in Vancouver.

``` r
# Look at all common_name present in the dataset
unique(select(vancouver_trees, common_name))
```

    ## # A tibble: 634 x 1
    ##    common_name          
    ##    <chr>                
    ##  1 BRANDON ELM          
    ##  2 JAPANESE ZELKOVA     
    ##  3 JAPANESE SNOWBELL    
    ##  4 AUTUMN APPLAUSE ASH  
    ##  5 HEDGE MAPLE          
    ##  6 CHANTICLEER PEAR     
    ##  7 COLUMNAR NORWAY MAPLE
    ##  8 CRIMEAN LINDEN       
    ##  9 ROSE OF SHARON       
    ## 10 RAYWOOD ASH          
    ## # ... with 624 more rows

``` r
# Select only those starting with Japanese and put into a variable of common_name
selected_common_name = c("JAPANESE SNOWBELL", "JAPANESE DOGWOOD", "JAPANESE ZELKOVA", "JAPANESE BEECH", "JAPANESE MAPLE", "JAPANESE FLOWERING CRABAPPLE", "JAPANESE STEWARTIA", "JAPANESE STEWARTIA", "JAPANESE HORNBEAM", "JAPANESE PAGODA TREE", "JAPANESE CRYPTOMERIA", "JAPANESE WALNUT", "JAPANESE ANGELICA TREE", "JAPANESE WHITE PINE", "JAPANESE BLACK PINE", "JAPANESE CHESTNUT")
# Create a new tibble containing only Japanese originated trees and take out some irrelevant variables and extreme values
vancouver_trees %>%
  select(-civic_number, -assigned, -cultivar_name, -street_side_name, -longitude, -latitude) %>%
  filter(size < 7.5*10^3, diameter < 40) %>%
  filter(common_name %in% selected_common_name)
```

    ## # A tibble: 4,611 x 15
    ##    tree_id std_street       genus_name species_name common_name     root_barrier
    ##      <dbl> <chr>            <chr>      <chr>        <chr>           <chr>       
    ##  1  149563 W 58TH AV        ZELKOVA    SERRATA      JAPANESE ZELKO~ N           
    ##  2  149579 WINDSOR ST       STYRAX     JAPONICA     JAPANESE SNOWB~ N           
    ##  3  149647 E 16TH AV        STYRAX     JAPONICA     JAPANESE SNOWB~ N           
    ##  4  149658 WINDSOR ST       STYRAX     JAPONICA     JAPANESE SNOWB~ N           
    ##  5  155398 MCRAE AV         STYRAX     JAPONICA     JAPANESE SNOWB~ N           
    ##  6  155424 W 57TH AV        CORNUS     KOUSA        JAPANESE DOGWO~ N           
    ##  7  155489 COMMERCIAL ST    FAGUS      CRENATA      JAPANESE BEECH  N           
    ##  8  155951 W KING EDWARD AV STYRAX     JAPONICA     JAPANESE SNOWB~ N           
    ##  9  156066 W 38TH AV        ACER       PALMATUM     JAPANESE MAPLE  N           
    ## 10  156067 W 38TH AV        ACER       PALMATUM     JAPANESE MAPLE  N           
    ## # ... with 4,601 more rows, and 9 more variables: plant_area <chr>,
    ## #   on_street_block <dbl>, on_street <chr>, neighbourhood_name <chr>,
    ## #   height_range_id <dbl>, diameter <dbl>, curb <chr>, date_planted <date>,
    ## #   size <dbl>
…
